nombre,fecha
"Año Nuevo",2020-01-01
Epifanía,2020-01-06
"Día de San José",2020-03-23
"Jueves Santo",2020-04-09
"Viernes Santo",2020-04-10
"Día del trabajo",2020-05-01
"Ascención de Jesús",2020-05-25
"Corpus Christi",2020-06-15
"Sagrado Corazón de Jesús",2020-06-22
"San Pedro y San Pablo",2020-06-29
"Día de la independencia",2020-07-20
"Batalla de Boyacá",2020-08-07
"Asunción de la Virgen",2020-08-17
"Día de la raza",2020-10-12
"Todos los Santos",2020-11-02
"Independencia de Cartagena",2020-11-16
"Inmaculada Concepción",2020-12-08
Navidad,2020-12-25
