{
  "name": "SINCHI",
  "version": "0.1.0",
  "private": true,
  "scripts": {
    "serve": "vue-cli-service serve",
    "build": "vue-cli-service build",
    "lint": "vue-cli-service lint"
  },
  "dependencies": {
    "@babel/polyfill": "7.0.0-rc.1",
    "axios": "0.19.0",
    "core-js": "2.6.5",
    "firebase": "6.2.4",
    "google-fonts-webpack-plugin": "0.4.4",
    "material-design-icons-iconfont": "5.0.1",
    "numeral": "2.0.6",
    "register-service-worker": "1.6.2",
    "roboto-fontface": "0.10.0",
    "v-money": "0.8.1",
    "vue": "2.6.10",
    "vue-currency-filter": "3.4.3",
    "vue-router": "3.0.3",
    "vue-session": "1.0.0",
    "vue-toasted": "1.1.27",
    "vuelidate": "0.7.4",
    "vuetify": "2.1.9",
    "vuex": "3.0.1"
  },
  "devDependencies": {
    "@vue/cli-plugin-babel": "3.8.0",
    "@vue/cli-plugin-eslint": "3.8.0",
    "@vue/cli-plugin-pwa": "3.8.0",
    "@vue/cli-service": "3.8.0",
    "@vue/eslint-config-standard": "4.0.0",
    "babel-eslint": "10.0.1",
    "eslint": "5.16.0",
    "eslint-plugin-vue": "5.0.0",
    "node-sass": "4.13.1",
    "sass-loader": "8.0.2",
    "sass": "1.26.2",
    "vue-cli-plugin-vuetify": "0.5.0",
    "vue-template-compiler": "2.6.10",
    "webpack": "4.39.3",
    "webpack-dev-server": "3.7.2",
    "vue-chartist": "2.2.1"
  },
  "eslintConfig": {
    "root": false,
    "env": {
      "node": true
    },
    "extends": [
      "plugin:vue/essential",
      "@vue/standard"
    ],
    "rules": {},
    "parserOptions": {
      "parser": "babel-eslint"
    }
  },
  "postcss": {
    "plugins": {
      "autoprefixer": {}
    }
  },
  "browserslist": [
    "> 1%",
    "last 2 versions",
    "not ie <= 10"
  ]
}
